<svg width="24" height="24" viewBox="0 0 24 24" fill="none" xmlns="http://www.w3.org/2000/svg">
<path fill-rule="evenodd" clip-rule="evenodd" d="M9.4922 6.86924C8.31862 7.0877 7.46362 8.15847 7.32362 9.43232L6.28577 18.9231H17.7143L16.6743 9.41924C16.5358 8.15155 15.6886 7.08309 14.5215 6.86309C12.7715 6.53309 11.3129 6.53001 9.4922 6.86924ZM10.3786 10.1908C10.3974 9.99094 10.3428 9.79113 10.2266 9.63405C10.1103 9.47697 9.94163 9.37508 9.75655 9.35017C9.57148 9.32526 9.3847 9.37929 9.23613 9.50072C9.08756 9.62215 8.98899 9.80135 8.96148 10L8.31505 15.5677C8.30101 15.6691 8.30594 15.7726 8.32955 15.8719C8.35317 15.9713 8.39499 16.0645 8.45255 16.1462C8.51012 16.2279 8.58228 16.2963 8.66477 16.3476C8.74727 16.3988 8.83844 16.4317 8.93293 16.4444C9.02742 16.4572 9.12332 16.4494 9.21498 16.4216C9.30665 16.3939 9.39223 16.3466 9.4667 16.2827C9.54117 16.2188 9.60302 16.1395 9.64861 16.0495C9.69421 15.9594 9.72262 15.8605 9.7322 15.7585L10.3786 10.1908Z" fill="#0A2544"/>
<path fill-rule="evenodd" clip-rule="evenodd" d="M10.91 8.21309C11.2258 8.45458 11.475 8.78375 11.6309 9.16558C11.7869 9.54742 11.8438 9.96764 11.7957 10.3816L11.15 15.9492C11.0828 16.5262 10.8243 17.0262 10.45 17.3846H16.1071L15.2557 9.59924C15.1828 8.93001 14.7528 8.46847 14.2757 8.37847C13.0821 8.15386 12.0543 8.09617 10.91 8.21309ZM16.6743 9.41924C16.5357 8.15155 15.6886 7.08309 14.5214 6.86309C12.7714 6.53309 11.3128 6.53001 9.49213 6.86924C8.31855 7.0877 7.46355 8.15847 7.32355 9.43232L6.2857 18.9231H17.7143L16.6743 9.41924ZM10.3786 10.1908L9.73213 15.7585C9.72255 15.8605 9.69413 15.9594 9.64854 16.0495C9.60295 16.1395 9.5411 16.2188 9.46663 16.2827C9.39216 16.3466 9.30658 16.3939 9.21491 16.4216C9.12325 16.4494 9.02735 16.4572 8.93286 16.4444C8.83837 16.4317 8.7472 16.3988 8.6647 16.3476C8.58221 16.2963 8.51005 16.2279 8.45248 16.1462C8.39492 16.0645 8.3531 15.9713 8.32948 15.8719C8.30587 15.7726 8.30094 15.6691 8.31498 15.5677L8.96141 10C8.97098 9.89798 8.9994 9.79904 9.045 9.70902C9.09059 9.61899 9.15244 9.53968 9.22691 9.47577C9.30138 9.41186 9.38696 9.36463 9.47863 9.33685C9.57029 9.30908 9.66619 9.30132 9.76067 9.31404C9.85516 9.32676 9.94634 9.3597 10.0288 9.41092C10.1113 9.46214 10.1835 9.5306 10.2411 9.61229C10.2986 9.69398 10.3404 9.78723 10.3641 9.88658C10.3877 9.98593 10.3926 10.0894 10.3786 10.1908ZM18.4286 22H5.57141V20.4616H18.4286V22Z" fill="#0A2544"/>
<path d="M4.14286 12.7692C4.14286 13.0285 4.15357 13.2846 4.175 13.5385H2V12H4.175C4.15357 12.2538 4.14286 12.51 4.14286 12.7692ZM5.58 7.88923C5.30452 8.30898 5.06519 8.75493 4.865 9.22154L2.98286 8.05077L3.69714 6.71846L5.58 7.88923ZM8.705 5.08462C8.27 5.30231 7.85643 5.56077 7.46929 5.85538L6.38143 3.82769L7.61857 3.05846L8.705 5.08538V5.08462ZM12 4.30769C11.7593 4.30769 11.5214 4.31923 11.2857 4.34231V2H12.7143V4.34231C12.4768 4.31928 12.2385 4.30773 12 4.30769ZM16.5314 5.85538C16.1416 5.55874 15.7275 5.30101 15.2943 5.08538L16.3814 3.05846L17.6186 3.82769L16.5314 5.85538ZM19.1357 9.22077C18.9352 8.75466 18.6957 8.30923 18.42 7.89L20.3029 6.71846L21.0171 8.05077L19.135 9.22077H19.1357ZM19.8571 12.7692C19.8571 12.51 19.8464 12.2538 19.825 12H22V13.5385H19.825C19.8464 13.2846 19.8571 13.0285 19.8571 12.7692Z" fill="#0A2544"/>
</svg>
