<svg width="24" height="24" viewBox="0 0 24 24" fill="none" xmlns="http://www.w3.org/2000/svg">
<g clip-path="url(#clip0_805_14266)">
<path d="M1.99998 18.4326C1.99998 19.3673 2.26212 20.0858 2.78639 20.5882C3.31067 21.0905 4.06131 21.341 5.03831 21.3395H19.0865C20.0445 21.3395 20.7703 21.0942 21.2639 20.6035C21.7576 20.1128 22.0058 19.3943 22.0087 18.448V5.89157C22.0087 4.94524 21.7605 4.22673 21.2639 3.73604C20.7674 3.24535 20.0416 3 19.0865 3H8.95507C7.99998 3 7.27416 3.24535 6.77763 3.73604C6.2811 4.22673 6.03284 4.94524 6.03284 5.89157V9.29135H4.29351C3.56332 9.29135 3.00034 9.48631 2.60458 9.87623C2.39658 10.09 2.23539 10.3447 2.13129 10.6242C2.0272 10.9036 1.98248 11.2017 1.99998 11.4995V18.4326ZM4.03722 18.2837V11.8675C4.03481 11.7945 4.04715 11.7217 4.07349 11.6536C4.09984 11.5855 4.13966 11.5234 4.19056 11.471C4.2435 11.4222 4.30565 11.3845 4.37336 11.36C4.44107 11.3356 4.51297 11.3249 4.58486 11.3286H6.04379V18.2837C6.04912 18.4192 6.02639 18.5543 5.977 18.6806C5.92762 18.8069 5.85266 18.9216 5.75682 19.0175C5.66454 19.1107 5.55416 19.1841 5.43248 19.2331C5.3108 19.282 5.18039 19.3056 5.04926 19.3023C4.91692 19.3055 4.78534 19.2812 4.66282 19.2311C4.5403 19.181 4.42947 19.106 4.33733 19.011C4.24047 18.9165 4.1639 18.8033 4.1123 18.6783C4.06069 18.5532 4.03515 18.4189 4.03722 18.2837V18.2837ZM7.89264 19.3023C8.01295 19.0053 8.07326 18.6874 8.07007 18.3669V6.09967C8.0596 5.95484 8.07802 5.80938 8.12428 5.67174C8.17054 5.5341 8.2437 5.40703 8.33952 5.29792C8.44666 5.20433 8.57141 5.13306 8.70644 5.0883C8.84148 5.04353 8.9841 5.02618 9.12593 5.03724H18.9069C19.0495 5.02689 19.1928 5.04521 19.3282 5.0911C19.4637 5.137 19.5885 5.20956 19.6955 5.30449C19.7909 5.41377 19.8637 5.54092 19.9096 5.67855C19.9554 5.81619 19.9735 5.96156 19.9627 6.10624V18.2333C19.9732 18.3776 19.955 18.5226 19.9091 18.6598C19.8632 18.7971 19.7906 18.9238 19.6955 19.0329C19.589 19.1286 19.4642 19.2018 19.3287 19.2481C19.1932 19.2944 19.0497 19.3129 18.9069 19.3023H7.89264ZM10.1051 8.50493H17.9386C18.0231 8.50659 18.1071 8.4907 18.1851 8.45828C18.2632 8.42585 18.3336 8.37759 18.3921 8.31654C18.4518 8.25643 18.4989 8.18493 18.5305 8.10629C18.5621 8.02764 18.5776 7.94345 18.5761 7.85871C18.5768 7.77721 18.561 7.69642 18.5298 7.62115C18.4985 7.54587 18.4525 7.47767 18.3943 7.42059C18.3345 7.36109 18.2634 7.3143 18.1851 7.28305C18.1068 7.2518 18.0229 7.23674 17.9386 7.23877H10.1051C10.0191 7.23614 9.93347 7.25088 9.8533 7.28212C9.77312 7.31337 9.70008 7.36046 9.63853 7.42059C9.57936 7.47714 9.53233 7.54515 9.50032 7.62048C9.4683 7.6958 9.45198 7.77686 9.45233 7.85871C9.4507 7.94366 9.46637 8.02805 9.49838 8.10676C9.53039 8.18547 9.57807 8.25684 9.63853 8.31654C9.69945 8.37796 9.77224 8.42633 9.85245 8.45872C9.93267 8.49111 10.0186 8.50683 10.1051 8.50493ZM10.1051 11.3242H17.9386C18.0228 11.3267 18.1066 11.312 18.1849 11.2811C18.2632 11.2502 18.3344 11.2038 18.3943 11.1446C18.4542 11.0866 18.5014 11.0166 18.5327 10.9393C18.564 10.8619 18.5788 10.7789 18.5761 10.6955C18.5776 10.6108 18.5621 10.5266 18.5305 10.4479C18.4989 10.3693 18.4518 10.2978 18.3921 10.2377C18.3336 10.1766 18.2632 10.1284 18.1851 10.0959C18.1071 10.0635 18.0231 10.0476 17.9386 10.0493H10.1051C10.0186 10.0474 9.93267 10.0631 9.85245 10.0955C9.77224 10.1279 9.69945 10.1763 9.63853 10.2377C9.57674 10.2975 9.52792 10.3694 9.49514 10.449C9.46235 10.5285 9.44629 10.6139 9.44795 10.6999C9.44554 10.7836 9.46088 10.867 9.49297 10.9444C9.52507 11.0218 9.57318 11.0915 9.63415 11.149C9.69668 11.2086 9.77068 11.2548 9.85164 11.285C9.9326 11.3151 10.0188 11.3284 10.1051 11.3242V11.3242ZM10.5432 16.9956H12.552C12.6991 17.0087 12.8473 16.9893 12.9861 16.9389C13.125 16.8885 13.251 16.8082 13.3555 16.7038C13.4599 16.5994 13.5402 16.4733 13.5906 16.3345C13.641 16.1956 13.6604 16.0474 13.6473 15.9003V13.977C13.6558 13.8309 13.6343 13.6846 13.5842 13.5471C13.5341 13.4096 13.4564 13.2838 13.3559 13.1774C13.248 13.0782 13.1212 13.0017 12.9831 12.9524C12.845 12.9031 12.6984 12.8821 12.552 12.8905H10.5432C10.3983 12.8832 10.2534 12.9049 10.1168 12.9541C9.98034 13.0034 9.85498 13.0793 9.74806 13.1774C9.64609 13.2832 9.56686 13.4086 9.51525 13.5462C9.46363 13.6837 9.44073 13.8303 9.44795 13.977V15.9113C9.43526 16.0583 9.45489 16.2063 9.50545 16.345C9.55601 16.4836 9.63627 16.6095 9.74063 16.7139C9.84498 16.8182 9.97089 16.8985 10.1095 16.9491C10.2482 16.9996 10.3962 17.0193 10.5432 17.0066V16.9956ZM15.0931 14.172H17.9408C18.0247 14.1741 18.1081 14.1589 18.1857 14.1273C18.2634 14.0956 18.3337 14.0481 18.3921 13.988C18.4513 13.9315 18.4982 13.8635 18.5298 13.7881C18.5615 13.7127 18.5773 13.6316 18.5761 13.5498C18.5781 13.4647 18.5628 13.3801 18.5311 13.301C18.4995 13.2219 18.4522 13.1501 18.3921 13.0898C18.334 13.029 18.2639 12.981 18.1862 12.949C18.1084 12.9169 18.0249 12.9014 17.9408 12.9036H15.0931C15.007 12.9007 14.9212 12.9157 14.8413 12.9478C14.7613 12.9798 14.6889 13.0282 14.6287 13.0898C14.5692 13.1505 14.5225 13.2225 14.4913 13.3015C14.4601 13.3805 14.445 13.4649 14.4469 13.5498C14.4457 13.6316 14.4614 13.7127 14.4931 13.7881C14.5248 13.8635 14.5717 13.9315 14.6309 13.988C14.6913 14.0486 14.7634 14.0962 14.8429 14.1278C14.9224 14.1594 15.0076 14.1745 15.0931 14.172V14.172ZM15.0931 17.0197H17.9408C18.0247 17.0219 18.1081 17.0067 18.1857 16.975C18.2634 16.9433 18.3337 16.8959 18.3921 16.8357C18.451 16.7791 18.4977 16.711 18.5293 16.6356C18.5609 16.5603 18.5769 16.4793 18.5761 16.3976C18.5783 16.3118 18.5631 16.2264 18.5315 16.1466C18.4999 16.0668 18.4524 15.9942 18.3921 15.9332C18.3342 15.872 18.2642 15.8236 18.1864 15.7911C18.1087 15.7587 18.025 15.7429 17.9408 15.7448H15.0931C15.0072 15.7425 14.9217 15.758 14.8422 15.7904C14.7626 15.8229 14.6906 15.8715 14.6309 15.9332C14.5174 16.0479 14.4517 16.2013 14.4469 16.3625C14.4462 16.444 14.4619 16.5248 14.4932 16.6001C14.5244 16.6754 14.5705 16.7436 14.6287 16.8007C14.688 16.8643 14.7599 16.9149 14.8399 16.9492C14.9198 16.9836 15.0061 17.0008 15.0931 17V17.0197Z" fill="#0A2544"/>
</g>
<defs>
<clipPath id="clip0_805_14266">
<rect width="20" height="18.3395" fill="white" transform="translate(2 3)"/>
</clipPath>
</defs>
</svg>
