<svg width="107" height="53" viewBox="0 0 107 53" fill="none" xmlns="http://www.w3.org/2000/svg">
<path d="M21.92 7.3329C22.5965 7.83597 23.1559 8.47957 23.5595 9.21943C24.0458 10.1598 24.2237 11.2294 24.0679 12.2768C23.8088 13.8781 23.6292 15.4958 23.285 17.0784C23.1431 17.7697 22.8307 18.4148 22.376 18.9552C21.9214 19.4955 21.3389 19.9139 20.6815 20.1724C20.0579 20.4387 19.4195 20.6699 18.7831 20.9029C18.6885 20.9289 18.6049 20.9847 18.5446 21.0621C18.4843 21.1394 18.4506 21.2341 18.4485 21.3321C18.0536 24.115 18.3207 26.9512 19.2282 29.6107C20.1357 32.2701 21.6581 34.6779 23.6719 36.6387C23.9821 36.955 24.3339 37.2296 24.6479 37.5418C24.7248 37.6286 24.8293 37.6862 24.9438 37.705C25.0583 37.7237 25.1758 37.7025 25.2766 37.6449C25.8484 37.407 26.4269 37.1816 27.0115 36.9771C27.7308 36.7002 28.5101 36.6166 29.2716 36.7347C30.033 36.8528 30.75 37.1684 31.3508 37.6501C32.5946 38.5968 33.8061 39.5903 34.9905 40.6146C35.6564 41.1658 36.164 41.8836 36.4617 42.6949C36.7594 43.5062 36.8366 44.382 36.6852 45.2331C36.6664 45.3715 36.6503 45.5103 36.6323 45.6491L36.0895 46.866C35.4572 47.7906 34.5253 48.4693 33.4508 48.7875C32.6295 49.0566 31.8318 49.4029 31.0235 49.7111C30.2669 49.9861 29.4345 49.9661 28.6925 49.6552C27.4563 49.1585 26.2688 48.5486 25.1453 47.8333C22.7475 46.3745 20.5657 44.588 18.6632 42.5258C14.6534 38.233 12.0104 32.8466 11.069 27.0492C10.0494 21.1731 10.836 15.1248 13.3251 9.70129C13.6507 8.96373 14.2545 8.38422 15.0053 8.08887C15.7976 7.77357 16.6116 7.50408 17.3918 7.16047C18.4214 6.6614 19.5913 6.53153 20.7048 6.7927L21.92 7.3329Z" fill="white"/>
<path d="M41.8293 30V10.501L44.4643 13.043H37.7993V8.3H47.9673V30H41.8293ZM58.4848 30.434C56.9761 30.434 55.4674 30.248 53.9588 29.876C52.4708 29.504 51.1688 28.977 50.0528 28.295L52.2848 23.676C53.1528 24.2547 54.1138 24.699 55.1678 25.009C56.2424 25.319 57.2861 25.474 58.2988 25.474C59.3528 25.474 60.1898 25.2777 60.8098 24.885C61.4298 24.4923 61.7398 23.9343 61.7398 23.211C61.7398 22.5703 61.4814 22.064 60.9648 21.692C60.4481 21.2993 59.6008 21.103 58.4228 21.103H55.8498V17.228L61.6778 10.935L62.2668 13.043H51.1688V8.3H66.8548V12.144L61.0268 18.437L58.0198 16.732H59.6938C62.4011 16.732 64.4471 17.3417 65.8318 18.561C67.2371 19.7597 67.9398 21.3097 67.9398 23.211C67.9398 24.451 67.5988 25.6187 66.9168 26.714C66.2554 27.8093 65.2324 28.7083 63.8478 29.411C62.4631 30.093 60.6754 30.434 58.4848 30.434ZM77.2017 30.434C75.7137 30.434 74.2154 30.248 72.7067 29.876C71.1981 29.504 69.8961 28.977 68.8007 28.295L71.0017 23.676C71.8904 24.2547 72.8514 24.699 73.8847 25.009C74.9387 25.319 75.9824 25.474 77.0157 25.474C78.0491 25.474 78.8861 25.2777 79.5267 24.885C80.1674 24.4717 80.4877 23.9033 80.4877 23.18C80.4877 22.746 80.3637 22.3637 80.1157 22.033C79.8677 21.6817 79.4441 21.4233 78.8447 21.258C78.2454 21.072 77.3877 20.979 76.2717 20.979H70.3817L71.4667 8.3H85.2927V13.043H73.6367L76.7677 10.346L76.0547 18.902L72.9237 16.205H77.7287C79.8781 16.205 81.6037 16.515 82.9057 17.135C84.2077 17.7343 85.1584 18.5507 85.7577 19.584C86.3571 20.5967 86.6567 21.7437 86.6567 23.025C86.6567 24.3063 86.3157 25.5153 85.6337 26.652C84.9724 27.768 83.9494 28.6773 82.5647 29.38C81.1801 30.0827 79.3924 30.434 77.2017 30.434ZM88.1614 30V26.156L96.2834 18.561C96.8621 18.0237 97.2858 17.5483 97.5544 17.135C97.8438 16.7217 98.0298 16.3497 98.1124 16.019C98.2158 15.6677 98.2674 15.3473 98.2674 15.058C98.2674 14.3553 98.0298 13.8077 97.5544 13.415C97.0998 13.0223 96.4074 12.826 95.4774 12.826C94.6921 12.826 93.9584 13.0017 93.2764 13.353C92.5944 13.7043 92.0364 14.2313 91.6024 14.934L87.0454 12.392C87.8514 11.028 89.0191 9.93267 90.5484 9.106C92.0778 8.27933 93.9068 7.866 96.0354 7.866C97.7094 7.866 99.1768 8.13467 100.437 8.672C101.698 9.20933 102.68 9.974 103.382 10.966C104.106 11.958 104.467 13.1257 104.467 14.469C104.467 15.1717 104.374 15.8743 104.188 16.577C104.002 17.259 103.641 17.9927 103.103 18.778C102.587 19.5427 101.812 20.4003 100.778 21.351L94.3304 27.303L93.3074 25.133H105.056V30H88.1614Z" fill="white"/>
<path d="M55.276 40.328C54.908 40.328 54.556 40.368 54.22 40.448C53.884 40.528 53.572 40.644 53.284 40.796L52.936 39.644C53.064 39.572 53.22 39.5 53.404 39.428C53.588 39.356 53.784 39.292 53.992 39.236C54.2 39.18 54.412 39.136 54.628 39.104C54.852 39.072 55.072 39.056 55.288 39.056C56.216 39.056 56.896 39.26 57.328 39.668C57.76 40.076 57.976 40.616 57.976 41.288C57.976 41.6 57.912 41.912 57.784 42.224C57.656 42.528 57.484 42.832 57.268 43.136C57.06 43.432 56.816 43.728 56.536 44.024C56.264 44.32 55.984 44.612 55.696 44.9L54.94 45.656H58.192V47H52.672V45.98L54.58 44.024C54.876 43.72 55.136 43.448 55.36 43.208C55.592 42.96 55.788 42.732 55.948 42.524C56.108 42.308 56.228 42.104 56.308 41.912C56.396 41.712 56.44 41.504 56.44 41.288C56.44 40.984 56.344 40.748 56.152 40.58C55.96 40.412 55.668 40.328 55.276 40.328ZM63.2541 44.348V41.48L61.1781 44.348H63.2541ZM63.4581 39.2H64.7661V44.348H65.6301V45.596H64.7661V47H63.2301V45.596H59.5221V44.6L63.4581 39.2ZM74.9699 44.66C74.9699 45.444 74.7499 46.056 74.3099 46.496C73.8699 46.928 73.1819 47.144 72.2459 47.144C71.3019 47.144 70.6099 46.94 70.1699 46.532C69.7379 46.116 69.5219 45.524 69.5219 44.756V44.132C69.5219 43.876 69.5779 43.652 69.6899 43.46C69.8019 43.26 69.9259 43.08 70.0619 42.92C70.1979 42.752 70.3219 42.592 70.4339 42.44C70.5459 42.28 70.6019 42.116 70.6019 41.948V41.78C70.6019 41.596 70.5099 41.504 70.3259 41.504H69.5939V40.28H70.5179C70.8299 40.28 71.0859 40.312 71.2859 40.376C71.4859 40.432 71.6459 40.516 71.7659 40.628C71.8859 40.74 71.9699 40.884 72.0179 41.06C72.0659 41.228 72.0899 41.424 72.0899 41.648V41.948C72.0899 42.18 72.0379 42.384 71.9339 42.56C71.8299 42.736 71.7139 42.908 71.5859 43.076C71.4579 43.236 71.3419 43.4 71.2379 43.568C71.1339 43.736 71.0819 43.924 71.0819 44.132V44.768C71.0819 45.168 71.1779 45.46 71.3699 45.644C71.5699 45.828 71.8619 45.92 72.2459 45.92C72.6299 45.92 72.9179 45.82 73.1099 45.62C73.3099 45.42 73.4099 45.104 73.4099 44.672V43.424C73.4099 43.168 73.3659 42.984 73.2779 42.872C73.1979 42.76 73.0659 42.704 72.8819 42.704H72.7019L72.4619 42.128L73.7339 40.28H75.3659L74.0099 42.02C74.3299 42.124 74.5699 42.308 74.7299 42.572C74.8899 42.836 74.9699 43.132 74.9699 43.46V44.66ZM73.3545 37.988C73.3545 38.172 73.4465 38.264 73.6305 38.264H76.7025V39.44H73.2705C73.0785 39.44 72.9025 39.416 72.7425 39.368C72.5745 39.32 72.4305 39.244 72.3105 39.14C72.1905 39.028 72.0945 38.888 72.0225 38.72C71.9505 38.544 71.9145 38.328 71.9145 38.072V37.472H73.3545V37.988ZM73.5585 36.476V34.508H74.9505V36.476H73.5585ZM76.3905 45.32C76.6625 45.48 76.9585 45.616 77.2785 45.728C77.6065 45.84 77.9385 45.896 78.2745 45.896C78.8505 45.896 79.2865 45.708 79.5825 45.332C79.8865 44.948 80.0385 44.384 80.0385 43.64C80.0385 42.864 79.8785 42.296 79.5585 41.936C79.2465 41.568 78.8145 41.384 78.2625 41.384C77.9265 41.384 77.6025 41.44 77.2905 41.552C76.9865 41.664 76.6865 41.824 76.3905 42.032L76.0305 40.856C76.3585 40.64 76.7305 40.468 77.1465 40.34C77.5625 40.204 77.9865 40.136 78.4185 40.136C79.4265 40.136 80.2065 40.432 80.7585 41.024C81.3185 41.616 81.5985 42.46 81.5985 43.556C81.5985 44.756 81.3145 45.656 80.7465 46.256C80.1865 46.848 79.4065 47.144 78.4065 47.144C77.9265 47.144 77.4785 47.092 77.0625 46.988C76.6545 46.884 76.3105 46.732 76.0305 46.532L76.3905 45.32ZM83.318 47V39.8C83.318 39.488 83.274 39.212 83.186 38.972C83.106 38.724 83.002 38.516 82.874 38.348C82.754 38.172 82.618 38.028 82.466 37.916C82.314 37.804 82.166 37.716 82.022 37.652L81.998 37.244C82.254 36.828 82.638 36.476 83.15 36.188C83.662 35.892 84.282 35.744 85.01 35.744C85.514 35.744 85.934 35.784 86.27 35.864C86.614 35.944 86.934 36.04 87.23 36.152L86.978 37.412C86.65 37.252 86.334 37.14 86.03 37.076C85.726 37.012 85.41 36.98 85.082 36.98C84.698 36.98 84.382 37.036 84.134 37.148C83.894 37.26 83.702 37.384 83.558 37.52C83.966 37.76 84.29 38.072 84.53 38.456C84.77 38.84 84.89 39.32 84.89 39.896V47H83.318ZM90.8151 40.28H92.3751V44.588C92.3751 45.436 92.1711 46.076 91.7631 46.508C91.3551 46.932 90.7911 47.144 90.0711 47.144C89.8391 47.144 89.6231 47.112 89.4231 47.048C89.2231 46.992 89.0351 46.92 88.8591 46.832C88.6911 46.736 88.5391 46.632 88.4031 46.52C88.2671 46.4 88.1551 46.284 88.0671 46.172L87.8991 47H86.5071V40.28H88.0671V44.804C88.1391 44.956 88.2311 45.1 88.3431 45.236C88.4551 45.364 88.5831 45.48 88.7271 45.584C88.8711 45.68 89.0231 45.756 89.1831 45.812C89.3511 45.868 89.5191 45.896 89.6871 45.896C90.4391 45.896 90.8151 45.436 90.8151 44.516V40.28ZM95.1843 47L93.1562 40.28H94.6923L96.3363 45.752H96.4683C96.6603 45.752 96.8443 45.696 97.0203 45.584C97.1963 45.472 97.3523 45.316 97.4883 45.116C97.6323 44.908 97.7443 44.66 97.8243 44.372C97.9043 44.076 97.9443 43.752 97.9443 43.4C97.9443 42.672 97.8243 42.156 97.5843 41.852C97.3523 41.54 97.0523 41.384 96.6842 41.384C96.4363 41.384 96.1683 41.436 95.8803 41.54L95.6523 40.4C95.8123 40.312 96.0043 40.248 96.2283 40.208C96.4603 40.16 96.7003 40.136 96.9483 40.136C97.3083 40.136 97.6443 40.208 97.9563 40.352C98.2683 40.496 98.5363 40.708 98.7603 40.988C98.9923 41.268 99.1723 41.612 99.3003 42.02C99.4363 42.42 99.5043 42.88 99.5043 43.4C99.5043 43.96 99.4283 44.464 99.2763 44.912C99.1243 45.352 98.9083 45.728 98.6283 46.04C98.3563 46.352 98.0323 46.592 97.6563 46.76C97.2803 46.92 96.8683 47 96.4203 47H95.1843Z" fill="#0A2544" fill-opacity="0.8"/>
</svg>
