<svg width="104" height="104" viewBox="0 0 104 104" fill="none" xmlns="http://www.w3.org/2000/svg">
<g filter="url(#filter0_d_401_7045)">
<rect x="4" width="96" height="96" rx="8" fill="#FFF8DD"/>
</g>
<path fill-rule="evenodd" clip-rule="evenodd" d="M52 26C39.8 26 30 35.8 30 48C30 60.2 39.8 70 52 70C64.2 70 74 60.2 74 48C74 35.8 64.2 26 52 26ZM69.8 46H61.8C61.4 40.4 59.6 35.2 56.4 30.6C63.6 32.4 69 38.6 69.8 46ZM58 50H46.2C46.6 55.4 48.6 60.6 52.2 64.8C55.4 60.6 57.4 55.4 58 50ZM46.2 46C46.8 40.6 48.8 35.4 52 31.2C55.4 35.6 57.4 40.8 57.8 46H46.2ZM42.2 46C42.6 40.4 44.4 35.2 47.4 30.6C40.4 32.4 35 38.6 34.2 46H42.2ZM34.2 50H42.2C42.6 55.6 44.4 60.8 47.6 65.4C40.4 63.6 35 57.4 34.2 50ZM62 50C61.4 55.6 59.6 60.8 56.6 65.4C63.6 63.6 69 57.4 70 50H62Z" fill="#F3B004"/>
<mask id="mask0_401_7045" style="mask-type:alpha" maskUnits="userSpaceOnUse" x="30" y="26" width="44" height="44">
<path fill-rule="evenodd" clip-rule="evenodd" d="M52 26C39.8 26 30 35.8 30 48C30 60.2 39.8 70 52 70C64.2 70 74 60.2 74 48C74 35.8 64.2 26 52 26ZM69.8 46H61.8C61.4 40.4 59.6 35.2 56.4 30.6C63.6 32.4 69 38.6 69.8 46ZM58 50H46.2C46.6 55.4 48.6 60.6 52.2 64.8C55.4 60.6 57.4 55.4 58 50ZM46.2 46C46.8 40.6 48.8 35.4 52 31.2C55.4 35.6 57.4 40.8 57.8 46H46.2ZM42.2 46C42.6 40.4 44.4 35.2 47.4 30.6C40.4 32.4 35 38.6 34.2 46H42.2ZM34.2 50H42.2C42.6 55.6 44.4 60.8 47.6 65.4C40.4 63.6 35 57.4 34.2 50ZM62 50C61.4 55.6 59.6 60.8 56.6 65.4C63.6 63.6 69 57.4 70 50H62Z" fill="white"/>
</mask>
<g mask="url(#mask0_401_7045)">
<path fill-rule="evenodd" clip-rule="evenodd" d="M28 24H76V72H28V24Z" fill="#F3B004"/>
</g>
<defs>
<filter id="filter0_d_401_7045" x="0" y="0" width="104" height="104" filterUnits="userSpaceOnUse" color-interpolation-filters="sRGB">
<feFlood flood-opacity="0" result="BackgroundImageFix"/>
<feColorMatrix in="SourceAlpha" type="matrix" values="0 0 0 0 0 0 0 0 0 0 0 0 0 0 0 0 0 0 127 0" result="hardAlpha"/>
<feOffset dy="4"/>
<feGaussianBlur stdDeviation="2"/>
<feComposite in2="hardAlpha" operator="out"/>
<feColorMatrix type="matrix" values="0 0 0 0 0.372549 0 0 0 0 0.4 0 0 0 0 0.54902 0 0 0 0.1 0"/>
<feBlend mode="normal" in2="BackgroundImageFix" result="effect1_dropShadow_401_7045"/>
<feBlend mode="normal" in="SourceGraphic" in2="effect1_dropShadow_401_7045" result="shape"/>
</filter>
</defs>
</svg>
